89383 89469 240
92777 92792 209
47793 47828 234
85386 85478 258
16649 16670 191
2362 2389 165
68690 68749 237
97763 97789 222
80540 80566 214
89172 89208 165
5211 5279 192
2567 2596 147
65782 65812 193
22862 22885 176
74067 74102 188
13929 13931 165
34022 34080 218
33069 33136 192
61393 61449 286
75011 75053 232
76229 76302 276
84421 84440 227
13784 13821 152
75198 75222 170
98315 98385 222
66413 66439 237
76091 76171 307
59956 60029 211
6862 6932 226
6996 7077 195
2305 2330 183
77084 77111 170
60336 60341 118
50846 50875 203
61313 61370 242
16124 16219 191
19582 19627 274
98814 98881 266
15434 15498 209
44043 44093 270
71087 71095 188
17276 17354 173
95788 95872 222
5403 5454 161
92754 92853 209
99932 99992 204
49676 49744 190
47739 47751 221
36226 36312 187
48094 48133 182
40795 40865 213
51434 51512 234
97467 97468 152
10097 10099 87
73317 73409 294
26652 26708 215
97301 97381 222
24286 24327 189
53865 53954 216
28444 28463 153
58440 58469 198
58031 58048 185
38097 38168 200
34481 34556 249
20709 20736 181
4567 4623 171
79497 79550 276
54586 54651 247
55306 55389 229
6219 6243 187
51528 51599 190
5732 5761 174
9503 9522 198
58270 58338 242
59708 59723 167
26340 26389 246
47796 47819 234
42618 42663 226
22846 22897 176
92921 92976 209
92379 92467 284
37764 37792 231
69841 69891 157
65193 65193 175
57034 57098 198
70124 70138 144
36987 37043 262
73743 73834 294
22227 22292 238
9859 9895 242
51432 51483 234
16437 16465 266
53275 53282 185
1474 1495 141
68858 68953 175
36029 36066 249
8235 8328 203
65818 65846 268
66143 66154 193
35928 35957 187
18776 18780 111
64443 64506 193
14613 14651 196
18606 18646 155
2904 2922 217
35128 35216 249
97369 97386 222
69917 70013 281
43324 43367 195
59470 59553 180
98490 98589 235
89772 89797 209
85644 85734 302
17505 17544 217
2954 3040 155
7669 7751 177
8542 8606 172
10197 10204 180
59355 59359 79
76348 76359 108
73622 73650 170
49299 49342 221
95746 95814 284
54340 54362 203
23311 23321 114
67605 67606 61
25661 25691 163
44878 44883 115
29320 29356 197
79444 79470 245
48522 48587 252
86708 86724 196
8282 8340 203
12924 12961 170
42062 42086 226
62600 62636 162
33452 33551 236
19379 19429 181
47468 47539 283
973 1004 143
3881 3911 176
8933 9027 247
58660 58723 198
57199 57280 229
48899 48995 296
52959 53032 278
72813 72881 250
87190 87285 178
52926 52992 278
65084 65124 180
22090 22174 207
43376 43418 164
55936 55943 185
17445 17501 173
69179 69197 175
6887 6899 182
3348 3420 181
51659 51668 172
2336 2346 152
66342 66429 237
78206 78207 108
97713 97785 222
75321 75376 170
64819 64918 268
17721 17725 124
55939 55950 154
73940 74007 232
11705 11733 175
11127 11177 237
65984 66042 268
63920 63944 224
2422 2491 209
21396 21477 238
45630 45714 208
79292 79364 245
7672 7722 177
47625 47710 159
41222 41321 213
6640 6682 182
83898 83911 183
52298 52388 172
80524 80614 214
88209 88290 196
88819 88855 209
37732 37787 262
95994 95998 191
60379 60448 211
85273 85349 289
68850 68905 175
21860 21902 238
75579 75663 232
21993 21998 150
67621 67688 268
62504 62517 136
1961 2015 175
31326 31385 254
18944 18946 93
13202 13208 139
36784 36805 156
22842 22910 194
89528 89617 240
8872 8880 172
49958 50056 234
48036 48044 252
57753 57801 198
83303 83336 258
32133 32181 192
72890 72944 263
17567 17613 248
90368 90397 209
14500 14546 183
73788 73885 232
66249 66339 193
73303 73336 219
5363 5460 161
10253 10345 180
47686 47711 159
61152 61248 211
45975 46063 239
49157 49186 221
95436 95496 222
53414 53435 216
70460 70464 131
60028 60055 198
78050 78098 170
7556 7558 84
4794 4891 179
58699 58742 198
1039 1041 125
90428 90431 240
44500 44581 239
17647 17685 279
36159 36210 187
22535 22569 269
4339 4431 215
2215 2242 183
20504 20533 212
60049 60113 286
98285 98314 191
95343 95378 253
3177 3177 54
85238 85309 289
16949 17038 217
95367 95455 253
92292 92387 253
40743 40787 200
2829 2919 217
61682 61722 180
53541 53610 247
53826 53858 172
