612614 540945 452
779770 258006 509
997831 98640 525
294177 330450 384
84653 617732 470
886116 311512 525
691908 420048 509
269408 341216 407
332281 77953 443
771617 406769 509
254986 687412 509
796407 445999 509
460158 311402 449
114821 215711 383
540392 681040 509
622970 352060 470
778215 24093 509
231581 997206 525
290182 503317 449
873259 313580 525
285518 627527 509
514301 289951 470
467345 833039 509
234910 830462 509
505071 237179 449
765245 161087 509
837464 732498 468
10502 403921 443
590243 515615 452
206767 316536 443
143428 996504 525
367383 329889 441
179002 473581 449
107628 202544 383
434128 708513 509
199370 614759 470
975743 591992 525
801489 277195 509
308686 702850 509
17442 599651 470
454099 345189 449
376883 241286 441
489219 525234 470
893906 642203 525
689648 675348 398
897964 11202 525
395554 304316 441
972935 699502 525
616993 167731 470
732170 813471 468
910642 395088 525
132094 787631 509
22743 855396 525
887922 384812 525
200942 775671 509
56917 333702 443
714371 17432 509
784864 867427 525
630579 822936 504
555612 481753 470
805203 578767 509
123600 512731 470
198622 237034 443
805344 92809 509
836149 620359 509
376814 440837 449
43995 936979 525
566911 760919 509
343421 132017 443
609596 431785 470
54810 525105 470
557365 38629 470
269840 439689 449
304521 779968 509
173477 36233 383
333325 245223 407
636152 131066 509
108775 664033 509
904161 860052 445
390360 515035 470
850688 471819 525
555798 600982 434
135276 217544 386
31781 889612 525
761545 36586 509
124624 214093 383
208348 863124 525
346096 39049 443
152514 751798 509
779574 80380 509
970235 188908 525
958560 365510 525
107582 387915 443
771235 329428 509
641257 810265 504
655687 959249 525
130872 997522 525
121640 413684 449
927473 753496 525
293056 549571 470
981556 144467 525
587785 250026 470
997426 819603 525
250038 855261 525
318571 865002 525
802705 914466 525
460473 614114 470
438808 19910 449
554114 94859 470
942547 551697 525
400266 816834 509
278002 647875 509
787121 999914 525
715345 956182 525
326149 445212 449
118506 770662 509
445186 998728 525
269029 204347 443
531654 960442 525
735549 731229 380
626874 586561 509
391667 411903 449
702042 418127 509
448444 23822 449
360828 421405 449
168897 856748 525
565537 908052 525
830288 178012 509
922809 318706 525
574510 996452 525
674778 762179 504
389365 145840 443
542737 566067 452
966529 671795 525
198709 545074 470
291573 696653 509
157577 112920 383
906399 592723 525
879029 425796 525
754059 35964 509
979511 939004 507
306513 31124 443
509026 270331 449
808869 516234 509
13625 561412 470
726786 824814 468
632956 257515 509
783443 243082 509
731055 391770 509
396248 765971 509
772609 929220 525
112009 747354 509
809402 525525 509
632582 109018 509
198616 856614 525
44869 771366 509
396466 152535 443
322006 866371 525
375713 390293 436
943919 852124 507
627971 768340 504
194552 582430 470
218110 274513 443
543468 11580 470
416839 361204 449
917417 181156 525
137879 692207 509
473064 456467 444
862376 267422 525
232541 10707 443
759815 924476 525
196062 545907 470
755664 667631 504
510162 94465 449
284725 401377 441
839559 446918 525
216044 964168 525
865669 68204 525
806309 335235 509
662118 68120 509
895672 301950 525
152812 770665 509
305220 849415 525
673894 443498 509
460106 460128 188
65701 753333 509
829671 125782 509
597990 951602 525
51317 881389 525
991685 872760 507
491071 704419 509
767913 17663 509
811100 67312 509
862077 261992 525
761384 122373 509
526653 636313 509
526664 64928 470
939435 92872 525
660804 702979 442
715892 72453 509
264848 600546 470
469924 104315 449
192948 757148 509
997729 599977 525
330608 142632 443
165367 528669 470
995099 529112 525
756223 613022 509
921405 45965 525
116868 185376 383
207407 265848 443
272588 801230 509
347682 326234 441
999420 340778 525
217412 371485 443
195100 782967 509
162082 669547 509
266181 474469 449
731204 449782 509
29150 563360 470
513590 761790 509
504059 863970 525
332338 17231 443
164127 172098 352
846521 403822 525
848498 947019 507
213559 830641 509
504920 91006 449
921817 627263 525
636059 803754 504
54844 682914 509
526709 384221 470
851739 4086 525
254903 872228 525
24033 41121 324
196225 631203 509
671363 542606 509
609308 858198 525
577941 336413 470
240770 786890 509
13011 655758 509
270680 525090 470
802321 693814 504
256407 929778 525
552172 223518 470
814284 143415 509
577130 404863 470
991994 54604 525
772560 839050 525
37269 233801 443
