930886 289383 525
636915 692777 442
238335 747793 509
760492 885386 525
641421 516649 509
490027 202362 449
520059 368690 470
513926 897763 525
383426 180540 443
455736 89172 449
595368 5211 470
956429 702567 525
21530 465782 449
665123 722862 504
703135 174067 509
979802 513929 525
723058 634022 504
898167 133069 525
18456 961393 525
478042 175011 449
377373 176229 443
544919 484421 470
898537 413784 525
594324 575198 434
664370 798315 504
803526 566413 509
268980 776091 509
241873 759956 509
999170 806862 525
497281 906996 525
420925 702305 509
336327 477084 449
126505 660336 509
621729 750846 509
925857 661313 525
353895 616124 470
100545 819582 509
233367 898814 525
990364 515434 525
313750 344043 384
426808 171087 449
947178 117276 525
393584 695788 509
502651 705403 509
612399 392754 470
95060 999932 525
993368 549676 525
210012 947739 525
698586 636226 442
297539 348094 441
480570 140795 449
960378 651434 525
66601 97467 351
612902 710097 509
570492 573317 372
260756 926652 525
560280 997301 525
209441 724286 509
429689 953865 525
346619 228444 443
744729 558440 509
108117 958031 525
905771 738097 525
890675 834481 525
698927 120709 509
777856 704567 504
872353 179497 525
276965 254586 407
964683 455306 525
28624 406219 443
332871 51528 443
48829 805732 509
530019 409503 470
363368 258270 441
486715 959708 525
518149 226340 470
700723 747796 504
2245 142618 375
493451 122846 449
243555 892921 525
597488 192379 470
888228 537764 525
792350 469841 509
441500 165193 449
87764 757034 509
324914 470124 449
275856 936987 525
346491 373743 410
148365 322227 443
281936 709859 509
452551 151432 449
899228 316437 525
975407 153275 525
276121 901474 525
794395 468858 509
661237 36029 509
573793 908235 525
894428 65818 525
231011 366143 441
639529 335928 509
322404 318776 371
255763 964443 525
854538 114613 525
436840 118606 449
344818 2904 443
670688 235128 509
67917 797369 509
466996 569917 470
987743 43324 525
512183 259470 470
295499 298490 327
206725 689772 509
755590 385644 509
268139 617505 470
469786 502954 426
338082 907669 525
388464 308542 441
939507 110197 525
228804 759355 509
278611 376348 441
127828 573622 470
887343 949299 507
35568 195746 383
755422 354340 509
613810 23311 470
321801 267605 407
473730 425661 444
811305 44878 509
178736 229320 386
248626 79444 443
503465 648522 509
473416 586708 470
213258 408282 443
167637 412924 449
305624 442062 449
532036 962600 525
911899 433452 525
145550 419379 449
290071 947468 525
487131 900973 525
684930 903881 525
845894 808933 525
370163 158660 443
387981 657199 509
252996 548899 470
713773 152959 509
739668 272813 509
681095 187190 509
116466 952926 525
911340 365084 525
327684 422090 449
855542 443376 525
379107 755936 509
219756 517445 470
418418 669179 509
89412 706887 509
32172 103348 351
262009 451659 449
625210 402336 470
467587 166342 449
319301 878206 525
667372 697713 442
401255 575321 470
44599 864819 525
229904 517721 470
939811 955939 414
915667 73940 525
346228 311705 441
829150 811127 450
996658 565984 525
789224 763920 468
867269 602422 525
54081 821396 509
740084 645630 504
811972 679292 504
73850 207672 383
905385 647625 525
739299 741222 393
606042 306640 470
340713 783898 509
256190 352298 441
942590 280524 525
108581 688209 509
499336 288819 449
371155 937732 525
218004 495994 449
614769 160379 470
981776 85273 525
247255 668850 509
348142 721860 509
445884 575579 470
223205 421993 449
679567 867621 525
690613 962504 525
262754 801961 509
154259 31326 375
828202 518944 509
723506 613202 509
902021 936784 476
390868 222842 443
235189 789528 509
949908 608872 525
210498 849958 525
518808 448036 470
686248 457753 509
33333 383303 443
321648 132133 443
999754 772890 525
251746 517567 470
319529 690368 509
238046 514500 470
549797 473788 470
86990 66249 351
3033 273303 443
12497 505363 449
294892 910253 525
519125 247686 470
613996 761152 509
209188 245975 443
703729 649157 442
32460 895436 525
543921 253414 470
26304 870460 525
388027 60028 443
266748 278050 407
308902 707556 509
697697 504794 509
571043 858699 525
132002 301039 443
806403 90428 509
681 144500 375
908538 617647 525
895151 36159 525
282134 522535 470
171692 104339 383
516127 502215 470
755629 720504 424
590964 60049 470
636429 298285 509
576335 495343 470
202900 903177 525
407971 885238 525
260289 416949 449
717988 495367 509
585795 392292 470
174232 453826 449
53144 40743 340
658390 102829 509
655340 961682 525
569 553541 470
